image,x,y
sample_pole.png,1387,2044
sample_pole.png,1387,1919
sample_pole.png,1387,1789
sample_pole.png,1387,1744
sample_pole.png,1387,1683
sample_midspan.png,1359,2021
sample_midspan.png,1359,1965
sample_midspan.png,1359,1927
sample_midspan.png,1359,1841
sample_midspan.png,1359,1729
sample_midspan.png,1359,1529
sample_midspan.png,1359,1543
